12 IP weighting and marginal structural models | R Code for Causal Inference: What If
…
Count number of individuals in all combinations of sex, age, and qsmk.

v <- 
  nhefs_censored %>% 
  expand(sex, age = full_seq(age, period = 1), qsmk) %>% 
  left_join(
    nhefs_censored %>% 
      mutate(n = 1),
    by = c("sex", "age", "qsmk")
  ) %>% 
  count(sex, age, qsmk, wt = n)

v

#> # A tibble: 200 × 4
#>    sex     age qsmk      n
#>    <fct> <dbl> <fct> <dbl>
#>  1 0        25 0        20
#>  2 0        25 1         6
#>  3 0        26 0        21
#>  4 0        26 1         5
#>  5 0        27 0        11
#>  6 0        27 1         5
#>  7 0        28 0        22
#>  8 0        28 1         3
#>  9 0        29 0        18
#> 10 0        29 1         2
#> # … with 190 more rows
#> # ℹ Use `print(n = ...)` to see more rows
…
