13 Standardization and the parametric g-formula | R Code for Causal Inference: What If
…
There are 1163 untreated individuals and 403 treated individuals.

Fit linear regression model for weight gain.

fit <- 
  lm(
    wt82_71 ~ qsmk * smokeintensity + sex + poly(age, 2) + race + education +
      poly(wt71, 2) + I(smokeintensity^2) + poly(smokeyrs, 2) + active +
      exercise,
    data = nhefs_censored
  )

broom::tidy(fit)

#> # A tibble: 21 × 5
#>    term           estimate std.error statistic       p.value
#>    <chr>             <dbl>     <dbl>     <dbl>         <dbl>
#>  1 (Intercept)      1.67      0.903      1.85  0.0651       
#>  2 qsmk1            2.56      0.809      3.16  0.00159      
#>  3 smokeintensity   0.0491    0.0517     0.950 0.342        
#>  4 sex1            -1.43      0.469     -3.05  0.00233      
#>  5 poly(age, 2)1  -90.6      15.7       -5.76  0.00000000994
#>  6 poly(age, 2)2  -36.2      10.2       -3.53  0.000421     
#>  7 race1            0.560     0.582      0.963 0.336        
#>  8 education2       0.790     0.607      1.30  0.193        
#>  9 education3       0.556     0.556      1.00  0.317        
#> 10 education4       1.49      0.832      1.79  0.0733       
#> # … with 11 more rows
#> # ℹ Use `print(n = ...)` to see more rows
…
We’ll now use the same procedure with the NHEFS data.

Fit linear regression model for weight gain.

fit <- 
  lm(
    wt82_71 ~ qsmk * smokeintensity + sex + poly(age, 2) + race + education +
      poly(wt71, 2) + I(smokeintensity^2) + poly(smokeyrs, 2) + active +
      exercise,
    data = nhefs_censored
  )

broom::tidy(fit)

#> # A tibble: 21 × 5
#>    term           estimate std.error statistic       p.value
#>    <chr>             <dbl>     <dbl>     <dbl>         <dbl>
#>  1 (Intercept)      1.67      0.903      1.85  0.0651       
#>  2 qsmk1            2.56      0.809      3.16  0.00159      
#>  3 smokeintensity   0.0491    0.0517     0.950 0.342        
#>  4 sex1            -1.43      0.469     -3.05  0.00233      
#>  5 poly(age, 2)1  -90.6      15.7       -5.76  0.00000000994
#>  6 poly(age, 2)2  -36.2      10.2       -3.53  0.000421     
#>  7 race1            0.560     0.582      0.963 0.336        
#>  8 education2       0.790     0.607      1.30  0.193        
#>  9 education3       0.556     0.556      1.00  0.317        
#> 10 education4       1.49      0.832      1.79  0.0733       
#> # … with 11 more rows
#> # ℹ Use `print(n = ...)` to see more rows
…
