14 G-estimation and structural nested models | R Code for Causal Inference: What If
…
Calculate alpha for potential counterfactuals between 2.0 and 5.0 in increments of 0.1.

v <- 
  seq(2, 5, 0.1) %>% 
  map_dfr(g_est)

v

#> # A tibble: 31 × 3
#>      psi  alpha p_value
#>    <dbl>  <dbl>   <dbl>
#>  1   2   0.0267 0.00177
#>  2   2.1 0.0249 0.00358
#>  3   2.2 0.0231 0.00696
#>  4   2.3 0.0212 0.0130 
#>  5   2.4 0.0194 0.0234 
#>  6   2.5 0.0176 0.0404 
#>  7   2.6 0.0157 0.0670 
#>  8   2.7 0.0139 0.107  
#>  9   2.8 0.0120 0.163  
#> 10   2.9 0.0102 0.239  
#> # … with 21 more rows
#> # ℹ Use `print(n = ...)` to see more rows
…
Using the formula in Technical Point 14.2, we obtain a closed-form estimate of the ATE.

fit <- 
  glm(
    qsmk ~ sex + poly(age, 2) + race + education + poly(wt71, 2) +
      poly(smokeintensity, 2) + poly(smokeyrs, 2) + active + exercise,
    family = binomial(),
    data = nhefs_censored,
    weights = ip_w_c
  )

broom::tidy(fit)

#> # A tibble: 19 × 5
#>    term           estimate std.error statistic       p.value
#>    <chr>             <dbl>     <dbl>     <dbl>         <dbl>
#>  1 (Intercept)     -1.17       0.199    -5.85  0.00000000490
#>  2 sex1            -0.514      0.150    -3.42  0.000622     
#>  3 poly(age, 2)1   22.1        4.77      4.64  0.00000348   
#>  4 poly(age, 2)2   -4.51       3.05     -1.48  0.140        
#>  5 race1           -0.861      0.206    -4.18  0.0000293    
#>  6 education2      -0.0289     0.193    -0.150 0.881        
#>  7 education3       0.0877     0.173     0.507 0.612        
#>  8 education4       0.0664     0.266     0.249 0.803        
#>  9 education5       0.471      0.221     2.13  0.0331       
#> 10 poly(wt71, 2)1   3.43       2.59      1.33  0.185        
#> # … with 9 more rows
#> # ℹ Use `print(n = ...)` to see more rows
…
