15 Outcome regression and propensity scores | R Code for Causal Inference: What If
…
15.1 Outcome regression

Fit linear regression using same model as in 13.2.

fit <- 
  lm(
    wt82_71 ~ qsmk * smokeintensity + sex + poly(age, 2) + race + education +
      poly(wt71, 2) + I(smokeintensity^2) + poly(smokeyrs, 2) + active +
      exercise,
    data = nhefs_censored
  )

broom::tidy(fit)

#> # A tibble: 21 × 5
#>    term           estimate std.error statistic       p.value
#>    <chr>             <dbl>     <dbl>     <dbl>         <dbl>
#>  1 (Intercept)      1.67      0.903      1.85  0.0651       
#>  2 qsmk1            2.56      0.809      3.16  0.00159      
#>  3 smokeintensity   0.0491    0.0517     0.950 0.342        
#>  4 sex1            -1.43      0.469     -3.05  0.00233      
#>  5 poly(age, 2)1  -90.6      15.7       -5.76  0.00000000994
#>  6 poly(age, 2)2  -36.2      10.2       -3.53  0.000421     
#>  7 race1            0.560     0.582      0.963 0.336        
#>  8 education2       0.790     0.607      1.30  0.193        
#>  9 education3       0.556     0.556      1.00  0.317        
#> 10 education4       1.49      0.832      1.79  0.0733       
#> # … with 11 more rows
#> # ℹ Use `print(n = ...)` to see more rows
…
6.1

Fit linear regression without product terms, the same model as in 13.3.

fit <- 
  lm(
    wt82_71 ~ qsmk + sex + poly(age, 2) + race + education + poly(wt71, 2) +
      poly(smokeintensity, 2) + poly(smokeyrs, 2) + active + exercise,
    data = nhefs_censored
  )

broom::tidy(fit)

#> # A tibble: 20 × 5
#>    term          estimate std.error statistic  p.value
#>    <chr>            <dbl>     <dbl>     <dbl>    <dbl>
#>  1 (Intercept)      2.09      0.628     3.33  8.75e- 4
#>  2 qsmk1            3.46      0.438     7.90  5.36e-15
#>  3 sex1            -1.47      0.468    -3.13  1.79e- 3
#>  4 poly(age, 2)1  -90.7      15.7      -5.77  9.51e- 9
#>  5 poly(age, 2)2  -36.4      10.2      -3.56  3.89e- 4
#>  6 race1            0.586     0.582     1.01  3.14e- 1
#>  7 education2       0.819     0.607     1.35  1.78e- 1
#>  8 education3       0.572     0.556     1.03  3.04e- 1
#>  9 education4       1.51      0.832     1.81  7.01e- 2
#> 10 education5      -0.171     0.741    -0.230 8.18e- 1
#> # … with 10 more rows
#> # ℹ Use `print(n = ...)` to see more rows
…
15.2 Propensity scores

Fit logistic regression model for propensity scores.

fit <- 
  glm(
    qsmk ~ sex + poly(age, 2) + race + education + poly(wt71, 2) + +
      poly(smokeintensity, 2) + poly(smokeyrs, 2) + active + exercise,
    family = binomial(),
    data = nhefs
  )

broom::tidy(fit)

#> # A tibble: 19 × 5
#>    term           estimate std.error statistic      p.value
#>    <chr>             <dbl>     <dbl>     <dbl>        <dbl>
#>  1 (Intercept)     -1.04       0.194   -5.35   0.0000000897
#>  2 sex1            -0.508      0.148   -3.42   0.000617    
#>  3 poly(age, 2)1   23.6        4.89     4.83   0.00000134  
#>  4 poly(age, 2)2   -3.76       3.15    -1.19   0.233       
#>  5 race1           -0.850      0.206   -4.13   0.0000363   
#>  6 education2      -0.0983     0.191   -0.516  0.606       
#>  7 education3       0.0157     0.171    0.0920 0.927       
#>  8 education4      -0.0425     0.264   -0.161  0.872       
#>  9 education5       0.380      0.220    1.72   0.0850      
#> 10 poly(wt71, 2)1   3.87       2.64     1.47   0.143       
#> # … with 9 more rows
#> # ℹ Use `print(n = ...)` to see more rows
…
9

163

10

163

Fit linear regression with decile interaction.

fit <- lm(wt82_71 ~ qsmk * decile, data = nhefs)

broom::tidy(fit)

#> # A tibble: 20 × 5
#>    term        estimate std.error statistic  p.value
#>    <chr>          <dbl>     <dbl>     <dbl>    <dbl>
#>  1 (Intercept)   4.00       0.630   6.34    3.04e-10
#>  2 qsmk1        -0.0147     2.39   -0.00613 9.95e- 1
#>  3 decile2      -1.09       0.916  -1.19    2.34e- 1
#>  4 decile3      -1.38       0.918  -1.51    1.32e- 1
#>  5 decile4      -0.521      0.926  -0.562   5.74e- 1
#>  6 decile5      -1.90       0.940  -2.02    4.39e- 2
#>  7 decile6      -2.15       0.954  -2.25    2.44e- 2
#>  8 decile7      -2.44       0.949  -2.57    1.04e- 2
#>  9 decile8      -3.71       0.974  -3.81    1.44e- 4
#> 10 decile9      -4.89       1.03   -4.73    2.44e- 6
#> # … with 10 more rows
#> # ℹ Use `print(n = ...)` to see more rows
…
Fit linear regression without decile interaction.

fit <- lm(wt82_71 ~ qsmk + decile, data = nhefs)

broom::tidy(fit)

#> # A tibble: 11 × 5
#>    term        estimate std.error statistic  p.value
#>    <chr>          <dbl>     <dbl>     <dbl>    <dbl>
#>  1 (Intercept)    3.75      0.609     6.16  9.29e-10
#>  2 qsmk1          3.50      0.457     7.66  3.28e-14
#>  3 decile2       -0.739     0.861    -0.858 3.91e- 1
#>  4 decile3       -0.618     0.861    -0.718 4.73e- 1
#>  5 decile4       -0.520     0.858    -0.606 5.44e- 1
#>  6 decile5       -1.49      0.859    -1.73  8.34e- 2
#>  7 decile6       -1.62      0.868    -1.87  6.16e- 2
#>  8 decile7       -1.99      0.868    -2.29  2.23e- 2
#>  9 decile8       -3.44      0.875    -3.94  8.61e- 5
#> 10 decile9       -5.15      0.885    -5.83  6.91e- 9
#> # … with 1 more row
#> # ℹ Use `print(n = ...)` to see more rows
…
