17 Causal survival analysis | R Code for Causal Inference: What If
…
survival_1

#> # A tibble: 242 × 6
#>     qsmk  time deaths deaths_cum survived survival
#>    <dbl> <dbl>  <int>      <int>    <int>    <dbl>
#>  1     0     0      0          0     1201    1    
#>  2     0     1      0          0     1201    1    
#>  3     0     2      0          0     1201    1    
#>  4     0     3      0          0     1201    1    
#>  5     0     4      1          1     1200    0.999
#>  6     0     5      1          2     1199    0.998
#>  7     0     6      0          2     1199    0.998
#>  8     0     7      1          3     1198    0.998
#>  9     0     8      2          5     1196    0.996
#> 10     0     9      0          5     1196    0.996
#> # … with 232 more rows
#> # ℹ Use `print(n = ...)` to see more rows
…
Fit logistic regression for hazards.

fit <-
  glm(
    event ~ poly(time, 2) + qsmk * poly(time, 2) + sex + poly(age, 2) + race +
      education + poly(wt71, 2) + poly(smokeintensity, 2) + smkintensity82_71 +
      poly(smokeyrs, 2) + active + exercise,
    family = binomial(),
    data = nhefs_pt
  )

broom::tidy(fit)

#> # A tibble: 25 × 5
#>    term           estimate std.error statistic   p.value
#>    <chr>             <dbl>     <dbl>     <dbl>     <dbl>
#>  1 (Intercept)     -6.70       0.199   -33.7   3.14e-249
#>  2 poly(time, 2)1 130.        31.2       4.16  3.13e-  5
#>  3 poly(time, 2)2 -52.9       30.2      -1.75  8.00e-  2
#>  4 qsmk             0.0296     0.179     0.165 8.69e-  1
#>  5 sex1            -0.437      0.141    -3.10  1.93e-  3
#>  6 poly(age, 2)1  392.        64.7       6.06  1.38e-  9
#>  7 poly(age, 2)2   -4.86      32.7      -0.149 8.82e-  1
#>  8 race1            0.0524     0.173     0.302 7.63e-  1
#>  9 education2      -0.140      0.157    -0.895 3.71e-  1
#> 10 education3      -0.433      0.153    -2.84  4.50e-  3
#> # … with 15 more rows
#> # ℹ Use `print(n = ...)` to see more rows
…
