…
Fit linear regression model for weight gain.

``` r
fit <- 
  lm(
    wt82_71 ~ qsmk * smokeintensity + sex + age + I(age^2) + race + education +
      wt71 + I(wt71^2) + I(smokeintensity^2) + smokeyrs + I(smokeyrs^2) +
      active + exercise,
    data = nhefs_censored
  )

broom::tidy(fit)
```

    #> # A tibble: 21 × 5
    #>    term           estimate std.error statistic  p.value
    #>    <chr>             <dbl>     <dbl>     <dbl>    <dbl>
    #>  1 (Intercept)    -1.59      4.31       -0.368 0.713   
    #>  2 qsmk1           2.56      0.809       3.16  0.00159 
    #>  3 smokeintensity  0.0491    0.0517      0.950 0.342   
    #>  4 sex1           -1.43      0.469      -3.05  0.00233 
    #>  5 age             0.360     0.163       2.20  0.0278  
    #>  6 I(age^2)       -0.00610   0.00173    -3.53  0.000421
    #>  7 race1           0.560     0.582       0.963 0.336   
    #>  8 education2      0.790     0.607       1.30  0.193   
    #>  9 education3      0.556     0.556       1.00  0.317   
    #> 10 education4      1.49      0.832       1.79  0.0733  
    #> # … with 11 more rows
…
Fit linear regression model for weight gain.

``` r
fit <- 
  lm(
    wt82_71 ~ qsmk * smokeintensity + sex + age + I(age^2) + race + education +
      wt71 + I(wt71^2) + I(smokeintensity^2) + smokeyrs + I(smokeyrs^2) +
      active + exercise,
    data = nhefs_censored
  )

broom::tidy(fit)
```

    #> # A tibble: 21 × 5
    #>    term           estimate std.error statistic  p.value
    #>    <chr>             <dbl>     <dbl>     <dbl>    <dbl>
    #>  1 (Intercept)    -1.59      4.31       -0.368 0.713   
    #>  2 qsmk1           2.56      0.809       3.16  0.00159 
    #>  3 smokeintensity  0.0491    0.0517      0.950 0.342   
    #>  4 sex1           -1.43      0.469      -3.05  0.00233 
    #>  5 age             0.360     0.163       2.20  0.0278  
    #>  6 I(age^2)       -0.00610   0.00173    -3.53  0.000421
    #>  7 race1           0.560     0.582       0.963 0.336   
    #>  8 education2      0.790     0.607       1.30  0.193   
    #>  9 education3      0.556     0.556       1.00  0.317   
    #> 10 education4      1.49      0.832       1.79  0.0733  
    #> # … with 11 more rows
…
